Simple Stats
…
Loading Data

Data is loaded by calling some function and assigning the results to some variable.

raw_ngs_data <- load_nextgen_stats(seasons = 2023, stat_type = 'receiving')

Now you can check your data by typing the variable into the console. The below will give you a quick preview of what the data looks like, truncating if need be.

raw_ngs_data

── nflverse Next Gen Stats weekly receiving data ───────────────────────────────

ℹ Data updated: 2024-01-14 02:15:00 EST

# A tibble: 1,420 × 23
   season season_type  week player_display_name player_position team_abbr
    <int> <chr>       <int> <chr>               <chr>           <chr>    
 1   2023 REG             0 Zay Flowers         WR              BAL      
 2   2023 REG             0 Jakobi Meyers       WR              LV       
 3   2023 REG             0 Rondale Moore       WR              ARI      
 4   2023 REG             0 Jerry Jeudy         WR              DEN      
 5   2023 REG             0 Dontayvion Wicks    WR              GB       
 6   2023 REG             0 Elijah Moore        WR              CLE      
 7   2023 REG             0 Kendrick Bourne     WR              NE       
 8   2023 REG             0 Jahan Dotson        WR              WAS      
 9   2023 REG             0 Cooper Kupp         WR              LAR      
10   2023 REG             0 Robert Woods        WR              HOU      
# ℹ 1,410 more rows
# ℹ 17 more variables: avg_cushion <dbl>, avg_separation <dbl>,
#   avg_intended_air_yards <dbl>, percent_share_of_intended_air_yards <dbl>,
#   receptions <int>, targets <int>, catch_percentage <dbl>, yards <int>,
#   rec_touchdowns <int>, avg_yac <dbl>, avg_expected_yac <dbl>,
#   avg_yac_above_expectation <dbl>, player_gsis_id <chr>,
#   player_first_name <chr>, player_last_name <chr>, …
…
# Take the data and forward it using the pipe
agg_data <- clean_ngs_data %>%
  # Take the data forwarded and group by the name
  group_by(player_display_name) %>%   
  # take the grouped data and take the average of the `avg_separation` column
  # you can add other summary stats here too like `avg_cushion`
  summarize(avg_separation = median(avg_separation),
            n = n(), # This just counts the number of observations (weeks) per group (player)
            avg_cushion = median(avg_cushion)) %>% 
  # ungroup the data
  ungroup()
  
agg_data

# A tibble: 205 × 4
   player_display_name avg_separation     n avg_cushion
   <chr>                        <dbl> <int>       <dbl>
 1 A.J. Brown                    2.36    15        6.58
 2 Adam Thielen                  2.90    14        6.55
 3 Adam Trautman                 4.41     2        4.99
 4 Alec Pierce                   2.34     7        6.22
 5 Alex Erickson                 2.76     3        7.36
 6 Allen Lazard                  1.60     5        6.46
 7 Allen Robinson                2.57     2        6.63
 8 Amari Cooper                  2.26    16        5.54
 9 Amon-Ra St. Brown             3.29    16        6.87
10 Andrei Iosivas                2.81     2        6.46
# ℹ 195 more rows

Once you have this aggregated data you can sort using the arrange function.

# take the data and pipe it to the arrange function
agg_data <- agg_data %>%
  # pass the column to the arrange function
  # use the `-` to make it descending (highest number first)
  arrange(-avg_separation)

agg_data

# A tibble: 205 × 4
   player_display_name avg_separation     n avg_cushion
   <chr>                        <dbl> <int>       <dbl>
 1 Lynn Bowden                   7.08     1        7.89
 2 Davis Allen                   5.44     1        2.64
 3 Daniel Bellinger              5.20     1        6.31
 4 Johnny Mundt                  5.10     2        6.17
 5 John Bates                    5.04     2        5.89
 6 Brevin Jordan                 5.02     1        6.10
 7 Rondale Moore                 4.86     5        8.00
 8 Austin Trammell               4.82     1        5.18
 9 Jauan Jennings                4.82     1        5.89
10 Isaiah Likely                 4.81     3        7.54
# ℹ 195 more rows

As you can see, there are some very high average separation numbers for some random players. This is because there are only a few weeks of logged data for the player. This is why I put the n column in summarize(). This is a very common problem and it’s reasonable to set some limit like 10 games or so.

# Take the agg data and pipe it to filter
filtered_agg_data <- agg_data %>%
  filter(n > 10)

filtered_agg_data

# A tibble: 54 × 4
   player_display_name avg_separation     n avg_cushion
   <chr>                        <dbl> <int>       <dbl>
 1 Rashee Rice                   4.25    14        6.04
 2 Dalton Kincaid                3.90    11        6.42
 3 Cole Kmet                     3.90    11        6.86
 4 Jerry Jeudy                   3.81    13        7.08
 5 Travis Kelce                  3.81    14        6.70
 6 Elijah Moore                  3.70    12        7.34
 7 Jaxon Smith-Njigba            3.67    12        6.97
 8 Zay Flowers                   3.54    11        7.94
 9 Jaylen Waddle                 3.47    14        6.81
10 Trey McBride                  3.38    12        4.84
# ℹ 44 more rows
…
This part is obviously more advanced but I’ll try to do it in the most simplistic way, eventually it’ll be second nature.

# define the model
# prediction separation using cushion
mod <- lm(formula = avg_separation ~ avg_cushion, data = filtered_agg_data)

Use the model to predict the x_separation column, or predicted separation. Don’t worry about much of this code, since it’s a little involved. Just know it’s appending the predicted separation to the data.

# augment our data
aug_data <- predict(object = mod, new_data = filtered_agg_data) %>%
  as_tibble_col("x_separation") %>%
  bind_cols(filtered_agg_data)
aug_data

# A tibble: 54 × 5
   x_separation player_display_name avg_separation     n avg_cushion
          <dbl> <chr>                        <dbl> <int>       <dbl>
 1         2.88 Rashee Rice                   4.25    14        6.04
 2         2.97 Dalton Kincaid                3.90    11        6.42
 3         3.07 Cole Kmet                     3.90    11        6.86
 4         3.12 Jerry Jeudy                   3.81    13        7.08
 5         3.03 Travis Kelce                  3.81    14        6.70
 6         3.17 Elijah Moore                  3.70    12        7.34
 7         3.09 Jaxon Smith-Njigba            3.67    12        6.97
 8         3.31 Zay Flowers                   3.54    11        7.94
 9         3.05 Jaylen Waddle                 3.47    14        6.81
10         2.62 Trey McBride                  3.38    12        4.84
# ℹ 44 more rows
…
